  % Total    % Received % Xferd  Average Speed   Time    Time     Time  Current
                                 Dload  Upload   Total   Spent    Left  Speed
  0     0    0     0    0     0      0      0 --:--:-- --:--:-- --:--:--     0  0     0    0     0    0     0      0      0 --:--:-- --:--:-- --:--:--     0100   673    0   673    0     0    795      0 --:--:-- --:--:-- --:--:--   795
HTTP/1.1 200 OK
Date: Sat, 21 Jan 2017 21:39:36 GMT
Server: Jetty(8.1.7.v20120910)
X-Frame-Options: SAMEORIGIN
Content-Type: application/json
Accept: application/json
User-Agent: curl/7.51.0
X-Forwarded-Host: msesandbox.cisco.com
X-Forwarded-Server: www.example.com
Authorization: Basic bGVhcm5pbmc6bGVhcm5pbmc=
X-Forwarded-For: 109.184.2.89
breadcrumbId: ID-mse-abc-inc-57236-1484325233372-0-131836
Transfer-Encoding: chunked

{"WirelessClientLocation":{"macAddress":"00:00:2a:01:00:09","currentlyTracked":true,"confidenceFactor":80.0,"ipAddress":["10.10.20.168"],"ssId":"test","band":"UNKNOWN","apMacAddress":"00:2b:01:00:03:00","isGuestUser":false,"dot11Status":"ASSOCIATED","MapInfo":{"mapHierarchyString":"DevNetCampus>DevNetBuilding>DevNetZone","floorRefId":723413320329068590,"Dimension":{"length":81.9,"width":307.0,"height":16.5,"offsetX":0.0,"offsetY":0.0,"unit":"FEET"}},"MapCoordinate":{"x":214.59,"y":49.05,"unit":"FEET"},"Statistics":{"currentServerTime":"2017-01-21T21:39:36.742+0000","firstLocatedTime":"2017-01-13T16:35:24.050+0000","lastLocatedTime":"2017-01-21T21:39:28.762+0000"}}}